…
After converting character variable from character to factor to numeric, it was converted successfully. However, I could not convert my factor variable from factor to character to numeric (NA shown up).

``` r
set.seed(1234)
q2_df = tibble(
  x = rnorm(1000),
  y = rnorm(1000),
  vec_logical = x + y > 0,
  vec_numeric = as.numeric(vec_logical),
  vec_factor = as.factor(vec_logical)
)
q2_df
```

    ## # A tibble: 1,000 x 5
    ##         x      y vec_logical vec_numeric vec_factor
    ##     <dbl>  <dbl> <lgl>             <dbl> <fct>     
    ##  1 -1.21  -1.21  FALSE                 0 FALSE     
    ##  2  0.277  0.301 TRUE                  1 TRUE      
    ##  3  1.08  -1.54  FALSE                 0 FALSE     
    ##  4 -2.35   0.635 FALSE                 0 FALSE     
    ##  5  0.429  0.703 TRUE                  1 TRUE      
    ##  6  0.506 -1.91  FALSE                 0 FALSE     
    ##  7 -0.575  0.939 TRUE                  1 TRUE      
    ##  8 -0.547 -0.224 FALSE                 0 FALSE     
    ##  9 -0.564 -0.674 FALSE                 0 FALSE     
    ## 10 -0.890  0.446 FALSE                 0 FALSE     
    ## # ... with 990 more rows
…
